<svg id="vuesax_linear_arrow-right" data-name="vuesax/linear/arrow-right" xmlns="http://www.w3.org/2000/svg" width="24" height="24" viewBox="0 0 24 24">
  <g id="arrow-right">
    <path id="Vector" d="M0,0,6.07,6.07,0,12.14" transform="translate(14.43 5.93)" fill="none" stroke="#949090" stroke-linecap="round" stroke-linejoin="round" stroke-width="1.5"/>
    <path id="Vector-2" data-name="Vector" d="M0,0H16.83" transform="translate(3.5 12)" fill="none" stroke="#949090" stroke-linecap="round" stroke-linejoin="round" stroke-width="1.5"/>
    <path id="Vector-3" data-name="Vector" d="M0,0H24V24H0Z" transform="translate(24 24) rotate(180)" fill="none" opacity="0"/>
  </g>
</svg>
